address1, name, toilettype, boundedBy
null,"Inner West",null,[144.9316002,-37.84328528,144.9316002,-37.84328528]
null,"Outer West",null,[144.9306358,-37.8461487,144.9306358,-37.8461487]
null,"Melbourne",null,[144.9311331,-37.84462656,144.9311331,-37.84462656]
"Exhibition Street & Collins Street","Exhibition Street & Collins Street","Automatic",[144.9714505,-37.81400979,144.9714505,-37.81400979]
"Lonsdale Street & Exhibition Street","Exhibition Street & Lonsdale Street","Automatic",[144.9699705,-37.81008978,144.9699705,-37.81008978]
"Queensberry Street & Errol Street","North Melbourne Town Hall","Sewerage",[144.94984411,-37.80297398,144.94984411,-37.80297398]
"66 Errol Street","North Melbourne Library","Sewerage",[144.949602,-37.80258,144.949602,-37.80258]
"Swanston Street","Swanston Street & Victoria Street","Sewerage",[144.96275982,-37.80697849,144.96275982,-37.80697849]
"Market Street & Collins Street","Market Street & Collins Street","Automatic",[144.96030886,-37.81756139,144.96030886,-37.81756139]
"Princes Park Drive","Princes Park Playground","Sewerage",[144.96313692,-37.78571859,144.96313692,-37.78571859]
"Royal Parade","Princes Park North","Sewerage",[144.96033586,-37.77865518,144.96033586,-37.77865518]
"42 Flemington Road","Ievers Reserve","Sewerage",[144.9519625,-37.79666881,144.9519625,-37.79666881]
"Government House Drive, Kings Domain","Government House Drive (Kings Domain)","Sewerage",[144.9746481,-37.8269196,144.9746481,-37.8269196]
"Kensington Road & Childers Street","JJ Holland Park 2","Automatic",[144.92109815,-37.79802306,144.92109815,-37.79802306]
"Exhibition Street","Exhibition Street & Little Lonsdale Street","Sewerage",[144.96973821,-37.80995966,144.96973821,-37.80995966]
"260 Collins Street","Australia On Collins","Sewerage",[144.965443,-37.815862,144.965443,-37.815862]
"90-106 Sydney Road","Barkly Square","Sewerage",[144.96068,-37.77554,144.96068,-37.77554]
"45 Collins Street","Collins Place","Sewerage",[144.972077,-37.814009,144.972077,-37.814009]
"Corner Elizabeth & Victoria Streets","Queen Victoria Market","Sewerage",[144.95871169,-37.80700873,144.95871169,-37.80700873]
"Corner Lonsdale & Swanston Streets","QV","Sewerage",[144.96497675,-37.81080858,144.96497675,-37.81080858]
"Bourke Street","The Walk Arcade","Sewerage",[144.96431337,-37.81421293,144.96431337,-37.81421293]
"Collins Street","Docklands Park","Sewerage",[144.9473805,-37.8217579,144.9473805,-37.8217579]
"Bourke Street","NAB Headquarters","Sewerage",[144.94489814,-37.81908331,144.94489814,-37.81908331]
"Lansdowne Street","Fitzroy Gardens 1","Sewerage",[144.9776016,-37.8152832,144.9776016,-37.8152832]
"Off North Road","The Warmies Williamstown","Automatic",[144.89710537,-37.84574741,144.89710537,-37.84574741]
"Lorimer Street","Point Park","Sewerage",[144.9418323,-37.8233097,144.9418323,-37.8233097]
"Concourse Level","Telstra Dome","Sewerage",[144.94809702,-37.81785133,144.94809702,-37.81785133]
"St Mangos Lane","NewQuay","Sewerage",[144.942258,-37.813866,144.942258,-37.813866]
"Spencer Street","Batman Park","Automatic",[144.9555637,-37.8217209,144.9555637,-37.8217209]
"Yarra River's Edge (Birrarung Marr)","Birrarung Marr","Sewerage",[144.97086721,-37.8187185,144.97086721,-37.8187185]
"Altona Street","JJ Holland Park 1","Sewerage",[144.926436,-37.7981282,144.926436,-37.7981282]
"169 Domain Road","Shrine Gardens Reserve","Sewerage",[144.98085405,-37.83366603,144.98085405,-37.83366603]
"Kerr Street","Kerr Street","Sewerage",[144.9842,-37.79722459,144.9842,-37.79722459]
"Elizabeth Street","Elizabeth Street & Franklin Street","Automatic",[144.96030773,-37.80819711,144.96030773,-37.80819711]
"Aughtie Drive","Albert Park - Carousel","Sewerage",[144.9674,-37.8456,144.9674,-37.8456]
"Aughtie Drive","Albert Park - Tennis Courts","Sewerage",[144.966497,-37.849167,144.966497,-37.849167]
"Anderson Street","Conifer","Sewerage",[144.98417618,-37.82883036,144.98417618,-37.82883036]
"Alexandra Avenue","Tropical","Sewerage",[144.97990052,-37.82922412,144.97990052,-37.82922412]
"Birdwood Avenue","Nursery","Sewerage",[144.97975147,-37.8324347,144.97975147,-37.8324347]
"Alexandra Avenue","Touchwood","Sewerage",[144.98209556,-37.82951167,144.98209556,-37.82951167]
"313 Kings Way","BP Kingsway","Sewerage",[144.9690591,-37.83401177,144.9690591,-37.83401177]
"322 City Road","BP Connect Clarendon","Sewerage",[144.958058,-37.827806,144.958058,-37.827806]
"143 - 153 Johnston Street","Fitzroy - BP","Sewerage",[144.979844,-37.798311,144.979844,-37.798311]
"117 Elgin Street","Carlton - BP","Sewerage",[144.970726,-37.79759,144.970726,-37.79759]
"269 St Georges Road","North Fitzroy - BP","Sewerage",[144.984741,-37.782413,144.984741,-37.782413]
"Lot C1 Smithfield Road","Coles Express Flemington","Sewerage",[144.91797,-37.79294,144.91797,-37.79294]
"399-411 Punt Road","Coles Express Richmond","Sewerage",[144.98849,-37.82646,144.98849,-37.82646]
"1181-1191 Hoddle Street","Coles Express East Melbourne","Sewerage",[144.99068,-37.81314,144.99068,-37.81314]
"1 Westgate Freeway","Coles Express Port Melbourne - Westgate North","Sewerage",[144.919373,-37.829011,144.919373,-37.829011]
"2 Westgate Freeway","Coles Express Port Melbourne - Westgate South","Sewerage",[144.918572,-37.831031,144.918572,-37.831031]
"55 Commercial Rd","Fawkner Park South","Sewerage",[144.9826214,-37.8452093,144.9826214,-37.8452093]
"152-154 Toorak Rd West","Fawkner Park North , Toorak Road","Sewerage",[144.98447567,-37.83812028,144.98447567,-37.83812028]
null,"Alexandra Park, Alexandra Avenue Melbourne","Sewerage",[144.9818233,-37.8276367,144.9818233,-37.8276367]
"245 Flinders St","Flinders Street (Outside Station)","Automatic",[144.9657651,-37.8180362,144.9657651,-37.8180362]
"2 Southgate Ave","Southbank Promenade Southbank","Automatic",[144.9672049,-37.8201288,144.9672049,-37.8201288]
"4 Argyle Place North","Argyle Place North","Automatic",[144.9665083,-37.8019988,144.9665083,-37.8019988]
"113 Queen St","Queen Street & Little Collins Street","Automatic",[144.9608726,-37.8158223,144.9608726,-37.8158223]
"424 Lonsdale St","Queen Street & Lonsdale Street","Automatic",[144.9593519,-37.8130477,144.9593519,-37.8130477]
"225 Bourke St","Bourke Street","Automatic",[144.9670223,-37.81320918,144.9670223,-37.81320918]
"Anderson Street","California","Sewerage",[144.9843137,-37.8312219,144.9843137,-37.8312219]
"310 Bourke Street","David Jones - Bourke Street","Sewerage",[144.964402,-37.813309,144.964402,-37.813309]
"Macarthur Road","Royal Park Brens Pavilion","Sewerage",[144.9551716,-37.7881948,144.9551716,-37.7881948]
"319 Montague Street","Albert Park Library","Sewerage",[144.95611908,-37.84133144,144.95611908,-37.84133144]
"219 Bay Street","Coles Bay Street","Sewerage",[144.9426349,-37.8381106,144.9426349,-37.8381106]
"195 Bank Street","Emerald Hill Library","Sewerage",[144.9603913,-37.8347221,144.9603913,-37.8347221]
"254 Richardson Street","Middle Park Community Centre","Sewerage",[144.9620851,-37.8496968,144.9620851,-37.8496968]
"333 Bay Street","Port Melbourne Town Hall","Sewerage",[144.944543,-37.835655,144.944543,-37.835655]
"250 The Boulevard","Sandridge Beach Public Toilets","Sewerage",[144.9172546,-37.8391489,144.9172546,-37.8391489]
"116 Cecil Street","South Melbourne Market","Sewerage",[144.95690476,-37.83259459,144.95690476,-37.83259459]
"208 Bank Street","South Melbourne Town Hall","Sewerage",[144.9596034,-37.8346609,144.9596034,-37.8346609]
"101 Beach Street","Port Melbourne Public Toilets","Sewerage",[144.9333205,-37.8404613,144.9333205,-37.8404613]
"Gatehouse Street","Royal Park - Native Garden","Sewerage",[144.95683056,-37.79256071,144.95683056,-37.79256071]
null,"Victoria Street Fitzroy","Automatic",[144.97872982,-37.79920935,144.97872982,-37.79920935]
"Old Poplar Road","Royal Park Golf Course Club House","Sewerage",[144.95592436,-37.78216219,144.95592436,-37.78216219]
"Smithfield Road","Newmarket Reserve (26 Smithfield Road)","Sewerage",[144.92346546,-37.78866815,144.92346546,-37.78866815]
"Mooltan Street","Debney Park","Sewerage",[144.9360829,-37.7856673,144.9360829,-37.7856673]
"Ballarat Road","Footscray Park 2","Sewerage",[144.9068951,-37.7943314,144.9068951,-37.7943314]
"Somerville Road","Yarraville Gardens Somerville Road","Sewerage",[144.8983886,-37.81430661,144.8983886,-37.81430661]
"47-61 byron street","Leeds Street","Sewerage",[144.9009423,-37.7994405,144.9009423,-37.7994405]
"Wellington Parade","Jolimont Station",null,[144.9836303,-37.81646716,144.9836303,-37.81646716]
"Flinders Street","Flinders Street Station","Sewerage",[144.9669741,-37.81823386,144.9669741,-37.81823386]
"Spencer Street","Southern Cross Station","Sewerage",[144.95364,-37.81808,144.95364,-37.81808]
"Flemington Road","Flemington Bridge Station","Sewerage",[144.9396158,-37.78805767,144.9396158,-37.78805767]
"La Trobe Street","Melbourne Central City Loop",null,[144.9628186,-37.80981201,144.9628186,-37.80981201]
"Railway Street","North Melbourne Station",null,[144.941628,-37.80715758,144.941628,-37.80715758]
"Spring Street","Parliament City Loop",null,[144.9731839,-37.81185271,144.9731839,-37.81185271]
"La Trobe Street","Flagstaff City Loop",null,[144.9561421,-37.81195695,144.9561421,-37.81195695]
"Irving Street","Footscray Station",null,[144.903433,-37.80093843,144.903433,-37.80093843]
"Peel Street","Peel Street","Septic",[144.9834159,-37.80511975,144.9834159,-37.80511975]
"Otter Street","Otter Street","Automatic",[144.9841807,-37.80082196,144.9841807,-37.80082196]
"Condell Street","Condell Street",null,[144.9798284,-37.80236994,144.9798284,-37.80236994]
"Newry Street","Curtain Square",null,[144.9729611,-37.78948082,144.9729611,-37.78948082]
"Alfred Crescent","Edinburgh Gardens - South",null,[144.9832654,-37.78910152,144.9832654,-37.78910152]
"Alfred Crescent","Edinburgh Gardens - North",null,[144.9819174,-37.786087,144.9819174,-37.786087]
"Aughtie Drive","Beaurepaire Pavilion","Sewerage",[144.968278,-37.847751,144.968278,-37.847751]
"Aughtie Drive","Coot Picnic Area","Sewerage",[144.963322,-37.842306,144.963322,-37.842306]
"Aquatic Drive","Albert Park Aquatic Drive","Sewerage",[144.966069,-37.83985,144.966069,-37.83985]
"Westgate Park Track","West Gate Park","Compost",[144.908,-37.8323,144.908,-37.8323]
"Collins Street & Swanston Street","Town Hall","Sewerage",[144.9670221,-37.81528832,144.9670221,-37.81528832]
"Elizabeth & Bourke Street","General Post Office (GPO)","Sewerage",[144.9631715,-37.81380915,144.9631715,-37.81380915]
"Church Street & Bourke Street","AMP Building","Sewerage",[144.9580061,-37.81618065,144.9580061,-37.81618065]
"Faraday Street","Faraday Street","Sewerage",[144.9674083,-37.79875719,144.9674083,-37.79875719]
"Batman Avenue","Birrarung Marr - Speakers' Corner","Sewerage",[144.9759315,-37.8210018,144.9759315,-37.8210018]
"Queensbridge Street & Flinders Street","Queensbridge Street","Sewerage",[144.9612942,-37.81937219,144.9612942,-37.81937219]
"Macarthur Street","Carpentaria Place - Gordon Reserve","Sewerage",[144.9739724,-37.81313313,144.9739724,-37.81313313]
"Elizabeth Street","Elizabeth Street & Victoria Street","Sewerage",[144.9598365,-37.8064368,144.9598365,-37.8064368]
"Latrobe Street & Russell Street","Latrobe Street & Russell Street","Sewerage",[144.9664137,-37.80891555,144.9664137,-37.80891555]
"Albert Street & Nicholson Street","Albert Street & Nicholson Street","Sewerage",[144.9731338,-37.80918386,144.9731338,-37.80918386]
"Exhibition Street & Flinders Street","Exhibition Street & Flinders Street","Sewerage",[144.9724565,-37.81589505,144.9724565,-37.81589505]
"Princes Street & Canning Street","Princes Street & Canning Street","Sewerage",[144.9738751,-37.79274442,144.9738751,-37.79274442]
"Queensberry Street & Errol Street","Queensberry Street & Errol Street","Sewerage",[144.9497264,-37.80312731,144.9497264,-37.80312731]
"Queensberry Street & Elizabeth Street","Queensberry Street & Elizabeth Street","Sewerage",[144.9584193,-37.80412346,144.9584193,-37.80412346]
"Queensberry Street & Swanston Street","Queensberry Street & Swanston Street","Sewerage",[144.9634014,-37.8044676,144.9634014,-37.8044676]
"King Street & Lonsdale Street","King Street & Lonsdale Street","Automatic",[144.9553786,-37.8142648,144.9553786,-37.8142648]
"Caroline Street - North","Caroline Gardens","Sewerage",[144.9875541,-37.83918732,144.9875541,-37.83918732]
null,"Visitor Centre","Sewerage",[144.97532666,-37.82989586,144.97532666,-37.82989586]
null,"Zelkova","Sewerage",[144.9775959,-37.83049957,144.9775959,-37.83049957]
"Beaconsfield Parade","Foreshore Reserve Kerferd Road","Sewerage",[144.9512999,-37.84930986,144.9512999,-37.84930986]
"Beaconsfield Parade","South Melbourne Life Saving Club","Sewerage",[144.9467004,-37.84707367,144.9467004,-37.84707367]
"Bowen Crescent","Bowen Crescent Reserve","Sewerage",[144.9733821,-37.83548556,144.9733821,-37.83548556]
"Eastern Road","Eastern Road","Automatic",[144.9659111,-37.83454541,144.9659111,-37.83454541]
"St Vincent Place North N","St Vincent Gardens Tennis Club","Sewerage",[144.9531039,-37.83950086,144.9531039,-37.83950086]
"Ferrars Street","St Vincent Gardens Bowls Club","Sewerage",[144.9568901,-37.83828105,144.9568901,-37.83828105]
"Pickles Street","Gasworks Park",null,[144.9462429,-37.84196589,144.9462429,-37.84196589]
"Beaconsfield Parade","Port Melbourne Surf Life Saving Club","Sewerage",[144.9421517,-37.84498995,144.9421517,-37.84498995]
"70 Beach Street","Port Melbourne Beach","Sewerage",[144.9362816,-37.8423726,144.9362816,-37.8423726]
null,"Sandridge Surf Life Saving Club","Sewerage",[144.9156222,-37.83975541,144.9156222,-37.83975541]
"Liardet Street","Lagoon Reserve",null,[144.9443878,-37.84033955,144.9443878,-37.84033955]
null,"Edwards Park",null,[144.9444894,-37.83858613,144.9444894,-37.83858613]
"Railway Crescent","Morris Reserve",null,[144.9352397,-37.83711235,144.9352397,-37.83711235]
"Williamstown Road","JL Murphy Reserve","Sewerage",[144.9307926,-37.83340227,144.9307926,-37.83340227]
"Dunstan Parade","Julier Reserve",null,[144.9236521,-37.83746825,144.9236521,-37.83746825]
"Oak Street","Manningham Reserve","Sewerage",[144.9418554,-37.7830369,144.9418554,-37.7830369]
"Flemington Road","Royal Park South","Sewerage",[144.94533336,-37.79111405,144.94533336,-37.79111405]
"Princes Park Drive","Princes Park, Crawford Oval","Sewerage",[144.9619849,-37.78806278,144.9619849,-37.78806278]
"Princes Park Drive","Princes Park, Crawford Oval","Sewerage",[144.9619165,-37.78848732,144.9619165,-37.78848732]
"Peel Street & Dudley Street","Flagstaff Gardens","Sewerage",[144.9550444,-37.8089207,144.9550444,-37.8089207]
"Bouverie Street","Lincoln Square","Automatic",[144.9623826,-37.80245451,144.9623826,-37.80245451]
"Carlton Street","Carlton Gardens, North","Sewerage",[144.9698317,-37.8026479,144.9698317,-37.8026479]
"Rathdowne Street","Carlton Gardens South","Sewerage",[144.9692033,-37.806262,144.9692033,-37.806262]
"Lansdowne Street","Treasury Gardens","Sewerage",[144.9773824,-37.81375773,144.9773824,-37.81375773]
"Clarendon Street","Fitzroy Gardens 2","Sewerage",[144.9830795,-37.8120314,144.9830795,-37.8120314]
"Albert Street","Powlett Reserve","Sewerage",[144.9868632,-37.810939,144.9868632,-37.810939]
"Corner of Punt Road and Olympic Boulevard","Gosch's Paddock, Yarra Park","Sewerage",[144.98815561,-37.82485313,144.98815561,-37.82485313]
"1 Boathouse Drive","Alexandra Gardens","Sewerage",[144.9733432,-37.8203652,144.9733432,-37.8203652]
"Alexandra Avenue","Kings Domain Sidney Myer Music Bowl","Sewerage",[144.9751411,-37.8228095,144.9751411,-37.8228095]
"Birdwood Avenue","Shrine of Remembrance (Kings Domain South)","Sewerage",[144.9749704,-37.8307763,144.9749704,-37.8307763]
"Birdwood Avenue","Royal Botanic Gardens","Sewerage",[144.9825131,-37.83330812,144.9825131,-37.83330812]
"Kings Way & Sturt Street","Sturt Street Reserve","Sewerage",[144.9650628,-37.830166,144.9650628,-37.830166]
"St Kilda Road","Fawkner Park, Northern Pavilion","Sewerage",[144.9812219,-37.8400168,144.9812219,-37.8400168]
"St Kilda Road","Fawkner Park, near Northern Pavilion","Sewerage",[144.9813836,-37.8401501,144.9813836,-37.8401501]
