X,Y,Z,id,
144.977866555022,-37.8714187789166,0,1
144.977892491775,-37.8715805748533,0,2
144.979250466069,-37.8708500229712,0,1
144.979241820484,-37.871090864251,0,,
144.979298634325,-37.8710958045849,0,,
144.978926874195,-37.8722611058542,0,,
144.978844741143,-37.8722697514386,0,,
144.978718762628,-37.8722759268561,0,,
144.978573022776,-37.8722907478579,0,,
144.978401346172,-37.8722987759006,0,,
144.978239550235,-37.8723135969024,0,,
144.978071578881,-37.8723234775703,0,,
144.977990063371,-37.8722222007244,0,,
144.977943130198,-37.8719220754372,0,,
144.977915958362,-37.8717232269959,0,,
144.97860606126,-37.8722654286464,0,,
144.978631689242,-37.8722237445788,0,,
144.978688811853,-37.8721496395696,0,,
144.978755815132,-37.8720489802654,0,,
144.978782678198,-37.8720199558035,0,,
144.978715674919,-37.8720974572923,0,,
144.978658861079,-37.8721851482198,0,,
144.97852485452,-37.8700935343358,0,,
144.978519914186,-37.8700484537885,0,,
144.978511268602,-37.8700107837422,0,,
144.978505710726,-37.8699663207367,0,,
144.978499535309,-37.8699298857738,0,,
144.978489654641,-37.8698878929353,0,,
144.978484096765,-37.8698360194289,0,,
144.978486566932,-37.8698594860151,0,,
144.978849063936,-37.8706252377766,0,,
144.977960421367,-37.871357642284,0,,
144.977916575903,-37.8713533194918,0,,
144.977879523399,-37.8713292353638,0,,
144.977865319939,-37.871266246106,0,,
144.977857909438,-37.871198934056,0,,
144.977836913019,-37.8710303451601,0,,
144.977806653473,-37.8708043248821,0,,
144.977770836052,-37.870547427517,0,,
144.977730078297,-37.8702188953096,0,,
144.977655973288,-37.8696680480747,0,,
144.9776176857,-37.8693815087059,0,,
144.977602864698,-37.8692431793555,0,,
144.977641769828,-37.8695633747493,0,,
144.977647327703,-37.8695865325646,0,,
144.979283195781,-37.8706993427858,0,,
144.979323953536,-37.8704862908844,0,,
144.979354830623,-37.870340551033,0,,
144.979346185039,-37.8698174931766,0,,
144.979409174297,-37.8700342503284,0,,
144.979245525735,-37.8697088058298,0,,
144.979022593165,-37.8694620979034,0,,
144.978866972646,-37.8692965967163,0,,
144.97873728888,-37.8691533270318,0,,
144.978505710726,-37.8689069278763,0,,
144.979067673713,-37.8719186789577,0,,
144.979178831226,-37.8713993263517,0,,
144.979210325855,-37.8712356777898,0,,
144.979234101212,-37.8711208150255,0,,
144.979112136718,-37.8710769695618,0,,
144.978930579446,-37.8711467517787,0,,
144.978789162387,-37.8712020217648,0,,
144.978341599008,-37.8713798737868,0,,
144.978066175391,-37.8714857821957,0,,
144.978037150929,-37.8713242950299,0,,
144.978295900919,-37.8712242532675,0,,
144.978196167928,-37.8712611513867,0,,
144.978466805597,-37.8711589482282,0,,
144.978599422686,-37.8711046045548,0,,
144.97870718372,-37.8710621485599,0,,
144.978823281568,-37.8710155241583,0,,
144.978940614499,-37.8709710611528,0,,
144.979028614198,-37.8709398752948,0,,
144.979166326006,-37.8708858403923,0,,
144.978549093034,-37.871296351266,0,,
